<svg xmlns="http://www.w3.org/2000/svg" viewBox="0 0 48 48">
  <circle cx="22" cy="20" r="8" fill="none" stroke="#000" stroke-width="2"/>
  <line x1="28.17" y1="26" x2="35.27" y2="32.9" fill="none" stroke="#000" stroke-linecap="round" stroke-width="2"/>
</svg>
